{
	"module_options": {
		"compute": {
			"compute_info_path": "compute_info.json"
		}
	},

	"runtime_modules": {
		"module_loading_policy": "everything"
	},

	"camera": {
		"fov": 55.0,
		"mouse_sensitivity": 1.0,
		"z_near": 0.1,
		"z_far": 200.0,
		"enable_up_down_movement": true,
		"pitch_rotation": 0.0,
		"yaw_rotation": 0.0,
		"start_position": [ -0.532387, -6.327063, 5.044875 ],
		"directional_shadows": {
			"enabled": true,
			"follow_player": false,
			"orthographic_matrix": [ -30.0, 30.0, -30.0, 30.0, -50.0, 70.0 ],
			"eye_position": [ -2, 44, 17 ],
			"target_position": [ 0, 0, 0 ]
		}
	},

	"lighting": {
		"pbr_settings": {
			"pbr_mode": true,
			"brdf_samples": 1024,
			"brdf_map_size": [ 512, 512 ],
			"default_pbr_info": {
				"roughness": 0.0,
				"ambient": 0.0,
				"metallic": 0.0
			}
		},
		"shadow_mode": 3,
		"comment": { "caustic_environment_map_path": "main_environment_models/caustic_environment_map.jpg" },
		"clear_color": [ 0.0859375, 0.7734375, 0.984375 ],
		"point_light_shadows": {
			"enabled": true,
			"shadow_limit": 5
		}
	},
	"scene_tree": {
		"disallow_automatic_no_op_nodes": true,
		"nodes": {
			"Gui": {
				"type": "no_op"
			},

			"Gui/SceneTreeGui": {
				"type": "scene_tree_gui"
			},
			"Lights/DirectionalLight": {
				"type": "directional_light",
				"diffuse": [ 1, 1, 1 ],
				"direction": [ -0.04, -0.64, 0.76 ],
				"day_night_rotation_time_frames": 0,
				"transform": {
					"position": [ 1, 8, 0 ]
				},
				"shadow_map_capture": {
					"position": [ -0.19, -0.13, -1.60 ],
					"view_direction": [ -0.04, -0.64, 0.76 ],
					"z_near": 0.1,
					"z_far": 100,
					"orthographic": {
						"left": -20,
						"right": 20,
						"bottom": 20,
						"top": -20
					}
				},
				"comment": {
					"Lights/PointLight": {
						"type": "point_light",
						"transform": {
							"position": [ 0, 0, -1.0 ]
						},
						"groups": [ "collidable" ],
						"light_emitter_model": {
							"node_name": "LightEmitterModel",
							"model_path": "main_environment_models/pointlight_blueball.obj"
						},
						"colors": {
							"light_box": [ 1, 1, 1 ],
							"generate_colors_from_box_color": true,
							"box_color_generation_scale": 2.0
						},
						"attenuation": {
							"quadratic": 0.20,
							"linear": 0.02,
							"constant": 1.0
						}
					}
				}
			},
			"Lights/DirectionalLight/Model": {
				"type": "assimp_model",
				"prim_geometry": {
					"geometry_type": "rectangular_prism",
					"extents": [ 0.5, 0.5, 0.5 ]
				},
				"material_color_override_textures": true,
				"custom_pbr_material": {
					"albedo": [ 0.0, 1.0, 0.0, 1.0 ],
					"roughness": 1.0,
					"metallic": 0.0,
					"ambient": 1
				}
			},
			"Sponza": {
				"type": "assimp_model",
				"transform": {
					"position": [ 0.0, -10.0, 0.0 ],
					"scale": [ 0.01, 0.01, 0.01 ],
					"rotation_quat": [ 0, 0, 0, 1 ]
				},
				"model_path": "C:/Users/bobby/Desktop/sponza/sponza-crytek/glTF/Sponza.gltf"
			},
			"SkyBox": {
				"type": "ibl_sky_box",
				"non_essential_node": false,
				"cubemap_texture_faces": [],
				"equirectangular_map": "../environments/pbr_textures/moonless_golf_2k.hdr",
				"enable_pbr_mode": true,
				"pbr_samples": [ 50, 50 ],
				"compute_cache_path": "compute_cache/"
			}
		}
	}
}
